<?xml version="1.0" encoding="UTF-8" standalone="no"?>
<!-- Created with Inkscape (http://www.inkscape.org/) -->

<svg
   xmlns:dc="http://purl.org/dc/elements/1.1/"
   xmlns:cc="http://creativecommons.org/ns#"
   xmlns:rdf="http://www.w3.org/1999/02/22-rdf-syntax-ns#"
   xmlns:svg="http://www.w3.org/2000/svg"
   xmlns="http://www.w3.org/2000/svg"
   xmlns:sodipodi="http://sodipodi.sourceforge.net/DTD/sodipodi-0.dtd"
   xmlns:inkscape="http://www.inkscape.org/namespaces/inkscape"
   width="190.59866mm"
   height="70.408073mm"
   viewBox="0 0 190.59866 70.408073"
   version="1.1"
   id="svg8"
   sodipodi:docname="fig_scene_pixels.svg"
   inkscape:version="0.92.5 (2060ec1f9f, 2020-04-08)"
   inkscape:export-filename="/home/poulpe/Enseignement/fiches_focus_online/BriquesDeGeomatique/figures/fig_scene_pixels.png"
   inkscape:export-xdpi="120"
   inkscape:export-ydpi="120">
  <defs
     id="defs2" />
  <sodipodi:namedview
     id="base"
     pagecolor="#ffffff"
     bordercolor="#666666"
     borderopacity="1.0"
     inkscape:pageopacity="0.0"
     inkscape:pageshadow="2"
     inkscape:zoom="1.7310479"
     inkscape:cx="360.18645"
     inkscape:cy="133.05463"
     inkscape:document-units="mm"
     inkscape:current-layer="layer1"
     showgrid="false"
     inkscape:window-width="1920"
     inkscape:window-height="1011"
     inkscape:window-x="0"
     inkscape:window-y="0"
     inkscape:window-maximized="1"
     fit-margin-top="0"
     fit-margin-left="0"
     fit-margin-right="0"
     fit-margin-bottom="0" />
  <metadata
     id="metadata5">
    <rdf:RDF>
      <cc:Work
         rdf:about="">
        <dc:format>image/svg+xml</dc:format>
        <dc:type
           rdf:resource="http://purl.org/dc/dcmitype/StillImage" />
        <dc:title></dc:title>
      </cc:Work>
    </rdf:RDF>
  </metadata>
  <g
     inkscape:label="Calque 1"
     inkscape:groupmode="layer"
     id="layer1"
     transform="translate(-8.0180864,-8.4367614)">
    <g
       id="g1017">
      <rect
         y="8.6410093"
         x="8.0180864"
         height="69.999786"
         width="90"
         id="rect815-6-5"
         style="opacity:1;fill:#01ad1c;fill-opacity:1;stroke:none;stroke-width:0.45288986;stroke-miterlimit:4;stroke-dasharray:none;stroke-dashoffset:0;stroke-opacity:1" />
      <path
         id="rect815-6"
         d="m 44.452018,8.6407969 c 0.501514,2.4337931 1.162583,5.5470941 2.092449,9.7515191 2.51157,11.356176 7.022254,18.523082 13.211062,22.559395 C 64.509843,36.812377 69.80031,31.791291 74.018007,23.6162 77.848239,16.192129 81.1216,11.550888 83.732904,8.6407969 Z"
         style="opacity:1;fill:#c4c4c4;fill-opacity:1;stroke:none;stroke-width:0.45288983;stroke-miterlimit:4;stroke-dasharray:none;stroke-dashoffset:0;stroke-opacity:1"
         inkscape:connector-curvature="0" />
      <path
         id="rect815"
         d="M 83.732904,8.640802 C 81.121602,11.550892 77.84824,16.192134 74.018009,23.616206 63.596956,43.815149 46.567488,44.858225 47.491471,60.531518 47.803298,65.820943 44.093176,72.480392 40.69208,78.640712 H 98.017973 V 8.640802 Z"
         style="opacity:1;fill:#0094ff;fill-opacity:1;stroke:none;stroke-width:0.45288986;stroke-miterlimit:4;stroke-dasharray:none;stroke-dashoffset:0;stroke-opacity:1"
         inkscape:connector-curvature="0" />
      <text
         transform="scale(0.95224455,1.0501504)"
         id="text942"
         y="54.98769"
         x="75.07711"
         style="font-style:normal;font-weight:normal;font-size:13.13173676px;line-height:1.25;font-family:sans-serif;letter-spacing:0px;word-spacing:0px;fill:#000000;fill-opacity:1;stroke:none;stroke-width:0.32829341"
         xml:space="preserve"><tspan
           style="font-style:normal;font-variant:normal;font-weight:bold;font-stretch:normal;font-size:3.88055563px;font-family:sans-serif;-inkscape-font-specification:'sans-serif Bold';stroke-width:0.32829341"
           y="54.98769"
           x="75.07711"
           id="tspan940"
           sodipodi:role="line">Eau</tspan></text>
      <text
         transform="scale(0.95224455,1.0501504)"
         id="text942-6"
         y="45.940159"
         x="21.780861"
         style="font-style:normal;font-weight:normal;font-size:13.13173676px;line-height:1.25;font-family:sans-serif;letter-spacing:0px;word-spacing:0px;fill:#000000;fill-opacity:1;stroke:none;stroke-width:0.32829341"
         xml:space="preserve"><tspan
           style="font-style:normal;font-variant:normal;font-weight:bold;font-stretch:normal;font-size:3.88055563px;font-family:sans-serif;-inkscape-font-specification:'sans-serif Bold';stroke-width:0.32829341"
           y="45.940159"
           x="21.780861"
           id="tspan940-2"
           sodipodi:role="line">Forêt</tspan></text>
      <text
         transform="scale(0.95224455,1.0501504)"
         id="text942-9"
         y="19.078419"
         x="56.933262"
         style="font-style:normal;font-weight:normal;font-size:13.13173676px;line-height:1.25;font-family:sans-serif;letter-spacing:0px;word-spacing:0px;fill:#000000;fill-opacity:1;stroke:none;stroke-width:0.32829341"
         xml:space="preserve"><tspan
           style="font-style:normal;font-variant:normal;font-weight:bold;font-stretch:normal;font-size:3.88055563px;font-family:sans-serif;-inkscape-font-specification:'sans-serif Bold';stroke-width:0.32829341"
           y="19.078419"
           x="56.933262"
           id="tspan940-1"
           sodipodi:role="line">Ville</tspan></text>
    </g>
    <g
       id="g1466"
       transform="translate(0,0.27947245)">
      <rect
         y="8.3614311"
         x="108.41272"
         height="69.999786"
         width="90"
         id="rect815-6-5-7"
         style="opacity:1;fill:#01ad1c;fill-opacity:1;stroke:none;stroke-width:0.45288986;stroke-miterlimit:4;stroke-dasharray:none;stroke-dashoffset:0;stroke-opacity:1" />
      <path
         id="rect815-6-0"
         d="m 144.84665,8.3612189 c 0.50151,2.4337931 1.16258,5.5470941 2.09245,9.7515191 2.51157,11.356176 7.02225,18.523082 13.21106,22.559395 4.75431,-4.139334 10.04478,-9.16042 14.26248,-17.335511 3.83023,-7.424071 7.10359,-12.065312 9.71489,-14.9754031 z"
         style="opacity:1;fill:#c4c4c4;fill-opacity:1;stroke:none;stroke-width:0.45288983;stroke-miterlimit:4;stroke-dasharray:none;stroke-dashoffset:0;stroke-opacity:1"
         inkscape:connector-curvature="0" />
      <path
         id="rect815-9"
         d="m 184.12753,8.361224 c -2.6113,2.91009 -5.88466,7.551332 -9.71489,14.975404 -10.42105,20.198943 -27.45052,21.242019 -26.52654,36.915312 0.31183,5.289425 -3.39829,11.948874 -6.79939,18.109194 H 198.4126 V 8.361224 Z"
         style="opacity:1;fill:#0094ff;fill-opacity:1;stroke:none;stroke-width:0.45288986;stroke-miterlimit:4;stroke-dasharray:none;stroke-dashoffset:0;stroke-opacity:1"
         inkscape:connector-curvature="0" />
      <g
         transform="translate(64.847788,-96.360867)"
         id="g1390">
        <g
           id="g1138">
          <rect
             y="104.72219"
             x="43.56493"
             height="10"
             width="10"
             id="rect1070"
             style="opacity:1;fill:none;fill-opacity:1;stroke:#060606;stroke-width:0.40806979;stroke-miterlimit:4;stroke-dasharray:none;stroke-dashoffset:0;stroke-opacity:1" />
          <rect
             y="104.72219"
             x="53.56493"
             height="10"
             width="10"
             id="rect1070-1"
             style="opacity:1;fill:none;fill-opacity:1;stroke:#060606;stroke-width:0.40806982;stroke-miterlimit:4;stroke-dasharray:none;stroke-dashoffset:0;stroke-opacity:1" />
          <rect
             y="104.72219"
             x="63.56493"
             height="10"
             width="10"
             id="rect1070-8"
             style="opacity:1;fill:none;fill-opacity:1;stroke:#060606;stroke-width:0.40806982;stroke-miterlimit:4;stroke-dasharray:none;stroke-dashoffset:0;stroke-opacity:1" />
          <rect
             y="104.72219"
             x="73.564926"
             height="10"
             width="10"
             id="rect1070-7"
             style="opacity:1;fill:none;fill-opacity:1;stroke:#060606;stroke-width:0.40806982;stroke-miterlimit:4;stroke-dasharray:none;stroke-dashoffset:0;stroke-opacity:1" />
          <rect
             y="104.72219"
             x="83.564926"
             height="10"
             width="10"
             id="rect1070-9"
             style="opacity:1;fill:none;fill-opacity:1;stroke:#060606;stroke-width:0.40806982;stroke-miterlimit:4;stroke-dasharray:none;stroke-dashoffset:0;stroke-opacity:1" />
          <rect
             y="104.72219"
             x="93.564926"
             height="10"
             width="10"
             id="rect1070-2"
             style="opacity:1;fill:none;fill-opacity:1;stroke:#060606;stroke-width:0.40806982;stroke-miterlimit:4;stroke-dasharray:none;stroke-dashoffset:0;stroke-opacity:1" />
          <rect
             y="104.72219"
             x="103.56493"
             height="10"
             width="10"
             id="rect1070-0"
             style="opacity:1;fill:none;fill-opacity:1;stroke:#060606;stroke-width:0.40806982;stroke-miterlimit:4;stroke-dasharray:none;stroke-dashoffset:0;stroke-opacity:1" />
          <rect
             y="104.72219"
             x="113.56493"
             height="10"
             width="10"
             id="rect1070-23"
             style="opacity:1;fill:none;fill-opacity:1;stroke:#060606;stroke-width:0.40806982;stroke-miterlimit:4;stroke-dasharray:none;stroke-dashoffset:0;stroke-opacity:1" />
          <rect
             y="104.72219"
             x="123.56493"
             height="10"
             width="10"
             id="rect1070-75"
             style="opacity:1;fill:none;fill-opacity:1;stroke:#060606;stroke-width:0.40806982;stroke-miterlimit:4;stroke-dasharray:none;stroke-dashoffset:0;stroke-opacity:1" />
        </g>
        <g
           transform="translate(0,10)"
           id="g1138-9">
          <rect
             y="104.72219"
             x="43.56493"
             height="10"
             width="10"
             id="rect1070-22"
             style="opacity:1;fill:none;fill-opacity:1;stroke:#060606;stroke-width:0.40806979;stroke-miterlimit:4;stroke-dasharray:none;stroke-dashoffset:0;stroke-opacity:1" />
          <rect
             y="104.72219"
             x="53.56493"
             height="10"
             width="10"
             id="rect1070-1-8"
             style="opacity:1;fill:none;fill-opacity:1;stroke:#060606;stroke-width:0.40806982;stroke-miterlimit:4;stroke-dasharray:none;stroke-dashoffset:0;stroke-opacity:1" />
          <rect
             y="104.72219"
             x="63.56493"
             height="10"
             width="10"
             id="rect1070-8-9"
             style="opacity:1;fill:none;fill-opacity:1;stroke:#060606;stroke-width:0.40806982;stroke-miterlimit:4;stroke-dasharray:none;stroke-dashoffset:0;stroke-opacity:1" />
          <rect
             y="104.72219"
             x="73.564926"
             height="10"
             width="10"
             id="rect1070-7-7"
             style="opacity:1;fill:none;fill-opacity:1;stroke:#060606;stroke-width:0.40806982;stroke-miterlimit:4;stroke-dasharray:none;stroke-dashoffset:0;stroke-opacity:1" />
          <rect
             y="104.72219"
             x="83.564926"
             height="10"
             width="10"
             id="rect1070-9-3"
             style="opacity:1;fill:none;fill-opacity:1;stroke:#060606;stroke-width:0.40806982;stroke-miterlimit:4;stroke-dasharray:none;stroke-dashoffset:0;stroke-opacity:1" />
          <rect
             y="104.72219"
             x="93.564926"
             height="10"
             width="10"
             id="rect1070-2-6"
             style="opacity:1;fill:none;fill-opacity:1;stroke:#060606;stroke-width:0.40806982;stroke-miterlimit:4;stroke-dasharray:none;stroke-dashoffset:0;stroke-opacity:1" />
          <rect
             y="104.72219"
             x="103.56493"
             height="10"
             width="10"
             id="rect1070-0-1"
             style="opacity:1;fill:none;fill-opacity:1;stroke:#060606;stroke-width:0.40806982;stroke-miterlimit:4;stroke-dasharray:none;stroke-dashoffset:0;stroke-opacity:1" />
          <rect
             y="104.72219"
             x="113.56493"
             height="10"
             width="10"
             id="rect1070-23-2"
             style="opacity:1;fill:none;fill-opacity:1;stroke:#060606;stroke-width:0.40806982;stroke-miterlimit:4;stroke-dasharray:none;stroke-dashoffset:0;stroke-opacity:1" />
          <rect
             y="104.72219"
             x="123.56493"
             height="10"
             width="10"
             id="rect1070-75-9"
             style="opacity:1;fill:none;fill-opacity:1;stroke:#060606;stroke-width:0.40806982;stroke-miterlimit:4;stroke-dasharray:none;stroke-dashoffset:0;stroke-opacity:1" />
        </g>
        <g
           transform="translate(0,20)"
           id="g1138-3">
          <rect
             y="104.72219"
             x="43.56493"
             height="10"
             width="10"
             id="rect1070-19"
             style="opacity:1;fill:none;fill-opacity:1;stroke:#060606;stroke-width:0.40806979;stroke-miterlimit:4;stroke-dasharray:none;stroke-dashoffset:0;stroke-opacity:1" />
          <rect
             y="104.72219"
             x="53.56493"
             height="10"
             width="10"
             id="rect1070-1-4"
             style="opacity:1;fill:none;fill-opacity:1;stroke:#060606;stroke-width:0.40806982;stroke-miterlimit:4;stroke-dasharray:none;stroke-dashoffset:0;stroke-opacity:1" />
          <rect
             y="104.72219"
             x="63.56493"
             height="10"
             width="10"
             id="rect1070-8-7"
             style="opacity:1;fill:none;fill-opacity:1;stroke:#060606;stroke-width:0.40806982;stroke-miterlimit:4;stroke-dasharray:none;stroke-dashoffset:0;stroke-opacity:1" />
          <rect
             y="104.72219"
             x="73.564926"
             height="10"
             width="10"
             id="rect1070-7-8"
             style="opacity:1;fill:none;fill-opacity:1;stroke:#060606;stroke-width:0.40806982;stroke-miterlimit:4;stroke-dasharray:none;stroke-dashoffset:0;stroke-opacity:1" />
          <rect
             y="104.72219"
             x="83.564926"
             height="10"
             width="10"
             id="rect1070-9-4"
             style="opacity:1;fill:none;fill-opacity:1;stroke:#060606;stroke-width:0.40806982;stroke-miterlimit:4;stroke-dasharray:none;stroke-dashoffset:0;stroke-opacity:1" />
          <rect
             y="104.72219"
             x="93.564926"
             height="10"
             width="10"
             id="rect1070-2-5"
             style="opacity:1;fill:none;fill-opacity:1;stroke:#060606;stroke-width:0.40806982;stroke-miterlimit:4;stroke-dasharray:none;stroke-dashoffset:0;stroke-opacity:1" />
          <rect
             y="104.72219"
             x="103.56493"
             height="10"
             width="10"
             id="rect1070-0-0"
             style="opacity:1;fill:none;fill-opacity:1;stroke:#060606;stroke-width:0.40806982;stroke-miterlimit:4;stroke-dasharray:none;stroke-dashoffset:0;stroke-opacity:1" />
          <rect
             y="104.72219"
             x="113.56493"
             height="10"
             width="10"
             id="rect1070-23-3"
             style="opacity:1;fill:none;fill-opacity:1;stroke:#060606;stroke-width:0.40806982;stroke-miterlimit:4;stroke-dasharray:none;stroke-dashoffset:0;stroke-opacity:1" />
          <rect
             y="104.72219"
             x="123.56493"
             height="10"
             width="10"
             id="rect1070-75-6"
             style="opacity:1;fill:none;fill-opacity:1;stroke:#060606;stroke-width:0.40806982;stroke-miterlimit:4;stroke-dasharray:none;stroke-dashoffset:0;stroke-opacity:1" />
        </g>
        <g
           transform="translate(0,30)"
           id="g1138-1">
          <rect
             y="104.72219"
             x="43.56493"
             height="10"
             width="10"
             id="rect1070-06"
             style="opacity:1;fill:none;fill-opacity:1;stroke:#060606;stroke-width:0.40806979;stroke-miterlimit:4;stroke-dasharray:none;stroke-dashoffset:0;stroke-opacity:1" />
          <rect
             y="104.72219"
             x="53.56493"
             height="10"
             width="10"
             id="rect1070-1-3"
             style="opacity:1;fill:none;fill-opacity:1;stroke:#060606;stroke-width:0.40806982;stroke-miterlimit:4;stroke-dasharray:none;stroke-dashoffset:0;stroke-opacity:1" />
          <rect
             y="104.72219"
             x="63.56493"
             height="10"
             width="10"
             id="rect1070-8-2"
             style="opacity:1;fill:none;fill-opacity:1;stroke:#060606;stroke-width:0.40806982;stroke-miterlimit:4;stroke-dasharray:none;stroke-dashoffset:0;stroke-opacity:1" />
          <rect
             y="104.72219"
             x="73.564926"
             height="10"
             width="10"
             id="rect1070-7-0"
             style="opacity:1;fill:none;fill-opacity:1;stroke:#060606;stroke-width:0.40806982;stroke-miterlimit:4;stroke-dasharray:none;stroke-dashoffset:0;stroke-opacity:1" />
          <rect
             y="104.72219"
             x="83.564926"
             height="10"
             width="10"
             id="rect1070-9-6"
             style="opacity:1;fill:none;fill-opacity:1;stroke:#060606;stroke-width:0.40806982;stroke-miterlimit:4;stroke-dasharray:none;stroke-dashoffset:0;stroke-opacity:1" />
          <rect
             y="104.72219"
             x="93.564926"
             height="10"
             width="10"
             id="rect1070-2-1"
             style="opacity:1;fill:none;fill-opacity:1;stroke:#060606;stroke-width:0.40806982;stroke-miterlimit:4;stroke-dasharray:none;stroke-dashoffset:0;stroke-opacity:1" />
          <rect
             y="104.72219"
             x="103.56493"
             height="10"
             width="10"
             id="rect1070-0-5"
             style="opacity:1;fill:none;fill-opacity:1;stroke:#060606;stroke-width:0.40806982;stroke-miterlimit:4;stroke-dasharray:none;stroke-dashoffset:0;stroke-opacity:1" />
          <rect
             y="104.72219"
             x="113.56493"
             height="10"
             width="10"
             id="rect1070-23-5"
             style="opacity:1;fill:none;fill-opacity:1;stroke:#060606;stroke-width:0.40806982;stroke-miterlimit:4;stroke-dasharray:none;stroke-dashoffset:0;stroke-opacity:1" />
          <rect
             y="104.72219"
             x="123.56493"
             height="10"
             width="10"
             id="rect1070-75-4"
             style="opacity:1;fill:none;fill-opacity:1;stroke:#060606;stroke-width:0.40806982;stroke-miterlimit:4;stroke-dasharray:none;stroke-dashoffset:0;stroke-opacity:1" />
        </g>
        <g
           transform="translate(0,40)"
           id="g1138-7">
          <rect
             y="104.72219"
             x="43.56493"
             height="10"
             width="10"
             id="rect1070-6"
             style="opacity:1;fill:none;fill-opacity:1;stroke:#060606;stroke-width:0.40806979;stroke-miterlimit:4;stroke-dasharray:none;stroke-dashoffset:0;stroke-opacity:1" />
          <rect
             y="104.72219"
             x="53.56493"
             height="10"
             width="10"
             id="rect1070-1-5"
             style="opacity:1;fill:none;fill-opacity:1;stroke:#060606;stroke-width:0.40806982;stroke-miterlimit:4;stroke-dasharray:none;stroke-dashoffset:0;stroke-opacity:1" />
          <rect
             y="104.72219"
             x="63.56493"
             height="10"
             width="10"
             id="rect1070-8-6"
             style="opacity:1;fill:none;fill-opacity:1;stroke:#060606;stroke-width:0.40806982;stroke-miterlimit:4;stroke-dasharray:none;stroke-dashoffset:0;stroke-opacity:1" />
          <rect
             y="104.72219"
             x="73.564926"
             height="10"
             width="10"
             id="rect1070-7-9"
             style="opacity:1;fill:none;fill-opacity:1;stroke:#060606;stroke-width:0.40806982;stroke-miterlimit:4;stroke-dasharray:none;stroke-dashoffset:0;stroke-opacity:1" />
          <rect
             y="104.72219"
             x="83.564926"
             height="10"
             width="10"
             id="rect1070-9-37"
             style="opacity:1;fill:none;fill-opacity:1;stroke:#060606;stroke-width:0.40806982;stroke-miterlimit:4;stroke-dasharray:none;stroke-dashoffset:0;stroke-opacity:1" />
          <rect
             y="104.72219"
             x="93.564926"
             height="10"
             width="10"
             id="rect1070-2-4"
             style="opacity:1;fill:none;fill-opacity:1;stroke:#060606;stroke-width:0.40806982;stroke-miterlimit:4;stroke-dasharray:none;stroke-dashoffset:0;stroke-opacity:1" />
          <rect
             y="104.72219"
             x="103.56493"
             height="10"
             width="10"
             id="rect1070-0-52"
             style="opacity:1;fill:none;fill-opacity:1;stroke:#060606;stroke-width:0.40806982;stroke-miterlimit:4;stroke-dasharray:none;stroke-dashoffset:0;stroke-opacity:1" />
          <rect
             y="104.72219"
             x="113.56493"
             height="10"
             width="10"
             id="rect1070-23-54"
             style="opacity:1;fill:none;fill-opacity:1;stroke:#060606;stroke-width:0.40806982;stroke-miterlimit:4;stroke-dasharray:none;stroke-dashoffset:0;stroke-opacity:1" />
          <rect
             y="104.72219"
             x="123.56493"
             height="10"
             width="10"
             id="rect1070-75-7"
             style="opacity:1;fill:none;fill-opacity:1;stroke:#060606;stroke-width:0.40806982;stroke-miterlimit:4;stroke-dasharray:none;stroke-dashoffset:0;stroke-opacity:1" />
        </g>
        <g
           transform="translate(0,50)"
           id="g1138-4">
          <rect
             y="104.72219"
             x="43.56493"
             height="10"
             width="10"
             id="rect1070-4"
             style="opacity:1;fill:none;fill-opacity:1;stroke:#060606;stroke-width:0.40806979;stroke-miterlimit:4;stroke-dasharray:none;stroke-dashoffset:0;stroke-opacity:1" />
          <rect
             y="104.72219"
             x="53.56493"
             height="10"
             width="10"
             id="rect1070-1-30"
             style="opacity:1;fill:none;fill-opacity:1;stroke:#060606;stroke-width:0.40806982;stroke-miterlimit:4;stroke-dasharray:none;stroke-dashoffset:0;stroke-opacity:1" />
          <rect
             y="104.72219"
             x="63.56493"
             height="10"
             width="10"
             id="rect1070-8-78"
             style="opacity:1;fill:none;fill-opacity:1;stroke:#060606;stroke-width:0.40806982;stroke-miterlimit:4;stroke-dasharray:none;stroke-dashoffset:0;stroke-opacity:1" />
          <rect
             y="104.72219"
             x="73.564926"
             height="10"
             width="10"
             id="rect1070-7-6"
             style="opacity:1;fill:none;fill-opacity:1;stroke:#060606;stroke-width:0.40806982;stroke-miterlimit:4;stroke-dasharray:none;stroke-dashoffset:0;stroke-opacity:1" />
          <rect
             y="104.72219"
             x="83.564926"
             height="10"
             width="10"
             id="rect1070-9-8"
             style="opacity:1;fill:none;fill-opacity:1;stroke:#060606;stroke-width:0.40806982;stroke-miterlimit:4;stroke-dasharray:none;stroke-dashoffset:0;stroke-opacity:1" />
          <rect
             y="104.72219"
             x="93.564926"
             height="10"
             width="10"
             id="rect1070-2-8"
             style="opacity:1;fill:none;fill-opacity:1;stroke:#060606;stroke-width:0.40806982;stroke-miterlimit:4;stroke-dasharray:none;stroke-dashoffset:0;stroke-opacity:1" />
          <rect
             y="104.72219"
             x="103.56493"
             height="10"
             width="10"
             id="rect1070-0-4"
             style="opacity:1;fill:none;fill-opacity:1;stroke:#060606;stroke-width:0.40806982;stroke-miterlimit:4;stroke-dasharray:none;stroke-dashoffset:0;stroke-opacity:1" />
          <rect
             y="104.72219"
             x="113.56493"
             height="10"
             width="10"
             id="rect1070-23-31"
             style="opacity:1;fill:none;fill-opacity:1;stroke:#060606;stroke-width:0.40806982;stroke-miterlimit:4;stroke-dasharray:none;stroke-dashoffset:0;stroke-opacity:1" />
          <rect
             y="104.72219"
             x="123.56493"
             height="10"
             width="10"
             id="rect1070-75-49"
             style="opacity:1;fill:none;fill-opacity:1;stroke:#060606;stroke-width:0.40806982;stroke-miterlimit:4;stroke-dasharray:none;stroke-dashoffset:0;stroke-opacity:1" />
        </g>
        <g
           transform="translate(0,60)"
           id="g1138-2">
          <rect
             y="104.72219"
             x="43.56493"
             height="10"
             width="10"
             id="rect1070-068"
             style="opacity:1;fill:none;fill-opacity:1;stroke:#060606;stroke-width:0.40806979;stroke-miterlimit:4;stroke-dasharray:none;stroke-dashoffset:0;stroke-opacity:1" />
          <rect
             y="104.72219"
             x="53.56493"
             height="10"
             width="10"
             id="rect1070-1-9"
             style="opacity:1;fill:none;fill-opacity:1;stroke:#060606;stroke-width:0.40806982;stroke-miterlimit:4;stroke-dasharray:none;stroke-dashoffset:0;stroke-opacity:1" />
          <rect
             y="104.72219"
             x="63.56493"
             height="10"
             width="10"
             id="rect1070-8-26"
             style="opacity:1;fill:none;fill-opacity:1;stroke:#060606;stroke-width:0.40806982;stroke-miterlimit:4;stroke-dasharray:none;stroke-dashoffset:0;stroke-opacity:1" />
          <rect
             y="104.72219"
             x="73.564926"
             height="10"
             width="10"
             id="rect1070-7-64"
             style="opacity:1;fill:none;fill-opacity:1;stroke:#060606;stroke-width:0.40806982;stroke-miterlimit:4;stroke-dasharray:none;stroke-dashoffset:0;stroke-opacity:1" />
          <rect
             y="104.72219"
             x="83.564926"
             height="10"
             width="10"
             id="rect1070-9-9"
             style="opacity:1;fill:none;fill-opacity:1;stroke:#060606;stroke-width:0.40806982;stroke-miterlimit:4;stroke-dasharray:none;stroke-dashoffset:0;stroke-opacity:1" />
          <rect
             y="104.72219"
             x="93.564926"
             height="10"
             width="10"
             id="rect1070-2-50"
             style="opacity:1;fill:none;fill-opacity:1;stroke:#060606;stroke-width:0.40806982;stroke-miterlimit:4;stroke-dasharray:none;stroke-dashoffset:0;stroke-opacity:1" />
          <rect
             y="104.72219"
             x="103.56493"
             height="10"
             width="10"
             id="rect1070-0-48"
             style="opacity:1;fill:none;fill-opacity:1;stroke:#060606;stroke-width:0.40806982;stroke-miterlimit:4;stroke-dasharray:none;stroke-dashoffset:0;stroke-opacity:1" />
          <rect
             y="104.72219"
             x="113.56493"
             height="10"
             width="10"
             id="rect1070-23-7"
             style="opacity:1;fill:none;fill-opacity:1;stroke:#060606;stroke-width:0.40806982;stroke-miterlimit:4;stroke-dasharray:none;stroke-dashoffset:0;stroke-opacity:1" />
          <rect
             y="104.72219"
             x="123.56493"
             height="10"
             width="10"
             id="rect1070-75-1"
             style="opacity:1;fill:none;fill-opacity:1;stroke:#060606;stroke-width:0.40806982;stroke-miterlimit:4;stroke-dasharray:none;stroke-dashoffset:0;stroke-opacity:1" />
        </g>
      </g>
    </g>
  </g>
</svg>
